{
    "object_name":"Nom d'objet",
    "date":"Date",
    "session_id":"ID de session",
    "all":"Tout",
    "visual":"Visuelle",
    "astrophoto":"Photo",
    "spectrograph":"Spectro",
    "newSession" : "Nouvelle Session", 
    "newObservation" : "Nouvelle Observation", 
    "settings" : "Paramètres",
    "searchButton" : "Recherche",
    "alertButton" : "Alerte",
    "refreshButton" : "Actualiser",
    "homeButton":"Retour observation",
    "loadData" : "Charger les données",
    "verify" : "Vérifier et Sauvegarder l'observation", 
    "allObservation": "Voir toutes les observations",
    "hideObservation": "Masquer les observations", 
    "display" : "Afficher",
    "modify" : "Modifier",
    "filter":"Filtre",
    "type":"Type",
    "coords":"Coordonnées", 
    "quickExport": "Export rapide",
    "persoExport": "Export personnalisé",
    "obsResult": "Retour au résultat de l'observation",
    "selectExport": "Export de la sélection",
    "export": "Export",
    "import": "Import"
}