{
    "title_target" : "Résumé de la Cible",
    "rv_value" : "Valeur RV : ",
    "sptype" : "Type Spectral : ",
    "mp_type" : "Type de Morpho : ",
    "flux_v" : "Flux(V) : ",
    "otype" : "Otype : ",
    "ra" : "RA : ",
    "dec" : "DEC : ",
    "dim" : "DIM : ",
    "title_ref_star" : "Résumé de l'Étoile Ref",
    "noSpecType" : "Pas de type spectral",
    "noMorphType" : "Pas de type de morpho"
}