{
    "observation_type": [
        {
            "astro":"Photo",
            "spectro":"Spectro",
            "visual":"Visual"
        }
    ],
    "target_type": [
        {
            "stars":"Stars",
            "planets":"Planets",
            "moon":"Moon",
            "sun":"Sun",
            "nebulae": "Nebulae",
            "galaxy":"Galaxy",
            "quasars":"Quasars",
            "comets":"Comets",
            "asteroids":"Asteroids",
            "exoplanets":"Exoplanets"
        }
    ]
}