{
    "title_target" : "Resume Target",
    "rv_value" : "RV Value : ",
    "sptype" : "Spectral Type : ",
    "mp_type" : "Morpho Type : ",
    "flux_v" : "Flux(V) : ",
    "otype" : "Otype : ",
    "ra" : "RA : ",
    "dec" : "DEC : ",
    "dim" : "DIM : ",
    "title_ref_star" : "Resume Ref Star",
    "noSpecType" : "No spectral type",
    "noMorphType" : "No morpho type"
}